Decimal - Octal - Control Signal
128 - 200 - 60283001
136 - 210 - 5c284020
144 - 220 - 48a840b8
145 - 221 - 5b1d0001
160 - 240 - 50830180
161 - 241 - 5b1d4021
176 - 260 - 588840b8
177 - 261 - 59190000
178 - 262 - 59800000
179 - 263 - 5a101000
180 - 264 - 5aa30080
181 - 265 - 5b184020
181 - 265 - 5b184021
182 - 266 - 5b800000
183 - 267 - 5c104020
184 - 270 - 5c800000
185 - 271 - 60103000
